{
  "type": "tab",
  "id": "6ee82922.799c88",
  "label": "Flow 1",
  "flow": [
    {
      "id": "a67479c1.d879e8",
      "type": "onthedot-connection",
      "z": "6ee82922.799c88",
      "name": "Red Ant",
      "api_url": "https://sbapi.onthedot.com/api/v1.0",
      "api_key": "1dOHtajAxKpCP0kLnc6BKMI6ZeQa"
    },
    {
      "id": "2ecbd8db.1f8818",
      "type": "onthedot-connection",
      "z": "6ee82922.799c88",
      "name": "Red Ant",
      "api_url": "https://sbapi.onthedot.com/api/v1.0",
      "api_key": "1dOHtajAxKpCP0kLnc6BKMI6ZeQa"
    },
    {
      "id": "a7a0358.50326c8",
      "type": "inject",
      "z": "6ee82922.799c88",
      "name": "",
      "topic": "",
      "payload": "",
      "payloadType": "date",
      "repeat": "",
      "crontab": "",
      "once": false,
      "x": 107,
      "y": 116,
      "wires": [
        [
          "401fc24a.8956fc"
        ]
      ]
    },
    {
      "id": "401fc24a.8956fc",
      "type": "function",
      "z": "6ee82922.799c88",
      "name": "",
      "func": "msg.payload = {\n    store_id: 'RedAnt-01',\n    postcode: 'SE18NW',\n    delivery_date: '2016-03-17T18:45:00Z'\n};\nreturn msg;",
      "outputs": 1,
      "noerr": 0,
      "x": 251,
      "y": 116,
      "wires": [
        [
          "fbc9d16.ff0b93"
        ]
      ]
    },
    {
      "id": "fbc9d16.ff0b93",
      "type": "onthedot-timeslot",
      "z": "6ee82922.799c88",
      "creds": "a67479c1.d879e8",
      "name": "",
      "store_id": "",
      "postcode": "",
      "delivery_date": "",
      "x": 392,
      "y": 116,
      "wires": [
        [
          "b4ef3d1e.154a3"
        ]
      ]
    },
    {
      "id": "b4ef3d1e.154a3",
      "type": "function",
      "z": "6ee82922.799c88",
      "name": "Create booking",
      "func": "msg.payload = {\n    uuid: msg.payload.data.data.uuid,\n    booking: {\n      timeslot: {\n        timeslotId: msg.payload.data.data.timeslots[0].timeslotId\n      },\n      webhook: \"https://techsprint3.redconnectapp.io/webhook\",\n      orderType: \"1\",\n      supplierId: \"CitySprint\",\n      accountNumber: \"\",\n      serviceType: \"\",\n      referenceNo: \"\",\n      departmentReferenceNo: \"\",\n      store: {\n        storeId: \"RedAnt-01\",\n        instruction: \"test\"\n      },\n      consumer: {\n        name: \"test\",\n        email: \"xyzstore@mail.com\",\n        mobileNumber: \"7777777777\",\n        address: {\n          firstLine: \"House A\",\n          secondLine: \"Street B\",\n          city: \"House A\",\n          postCode: \"HA11JU\"\n        },\n        instruction: \"\"\n      },\n      item: {\n        referenceNumber: \"123456\",\n        itemContentCount: 1,\n        weight: 0,\n        height: 0,\n        length: 0,\n        description: \"\"\n      },\n      notificationType: \"\"\n    }\n\n};\n\nreturn msg;",
      "outputs": 1,
      "noerr": 0,
      "x": 558,
      "y": 116,
      "wires": [
        [
          "3761603b.4be2"
        ]
      ]
    },
    {
      "id": "3761603b.4be2",
      "type": "onthedot-booking",
      "z": "6ee82922.799c88",
      "creds": "a67479c1.d879e8",
      "name": "Create Booking",
      "x": 745,
      "y": 116,
      "wires": [
        [
          "c405af79.4a4c3"
        ]
      ]
    },
    {
      "id": "c405af79.4a4c3",
      "type": "debug",
      "z": "6ee82922.799c88",
      "name": "",
      "active": true,
      "console": "false",
      "complete": "false",
      "x": 860.5,
      "y": 195,
      "wires": []
    },
    {
      "id": "fe27c771.21e4d8",
      "type": "http in",
      "z": "6ee82922.799c88",
      "name": "webhook",
      "url": "/webhook",
      "method": "get",
      "swaggerDoc": "",
      "x": 149.5,
      "y": 259,
      "wires": [
        [
          "9186ac1b.56071"
        ]
      ]
    },
    {
      "id": "9186ac1b.56071",
      "type": "debug",
      "z": "6ee82922.799c88",
      "name": "",
      "active": true,
      "console": "false",
      "complete": "false",
      "x": 335.5,
      "y": 309,
      "wires": []
    },
    {
      "id": "536adc1e.ed7914",
      "type": "debug",
      "z": "6ee82922.799c88",
      "name": "",
      "active": true,
      "console": "false",
      "complete": "false",
      "x": 614,
      "y": 193,
      "wires": []
    },
    {
      "id": "99d7ef4b.674d7",
      "type": "onthedot-booking",
      "z": "6ee82922.799c88",
      "creds": "2ecbd8db.1f8818",
      "name": "Retrieve Booking",
      "x": 397,
      "y": 193,
      "wires": [
        [
          "536adc1e.ed7914"
        ]
      ]
    },
    {
      "id": "3882d315.46b0cc",
      "type": "inject",
      "z": "6ee82922.799c88",
      "name": "",
      "topic": "",
      "payload": "",
      "payloadType": "date",
      "repeat": "",
      "crontab": "",
      "once": false,
      "x": 81,
      "y": 171,
      "wires": [
        [
          "e87ee7fc.3498d8"
        ]
      ]
    },
    {
      "id": "e87ee7fc.3498d8",
      "type": "function",
      "z": "6ee82922.799c88",
      "name": "",
      "func": "msg.payload = {\n    store_id: 'RedAnt-01',\n    order_id: '17450368'\n};\nreturn msg;",
      "outputs": 1,
      "noerr": 0,
      "x": 210,
      "y": 193,
      "wires": [
        [
          "99d7ef4b.674d7"
        ]
      ]
    }
  ]
}