{
  "id": "9de226fe.40de78",
  "type": "subflow",
  "name": "Update DB ( status + entities )",
  "info": "",
  "in": [
    {
      "x": 60,
      "y": 60,
      "wires": [
        {
          "id": "6fac87fa.857198"
        }
      ]
    }
  ],
  "out": [],
  "flow": [
    {
      "id": "7a6e86e3.584a48",
      "type": "function",
      "z": "9de226fe.40de78",
      "name": "Update DB",
      "func": "if ( msg.payload.status ) {\n    msg.chatstate.name = msg.payload.status;\n}\nif ( !msg.chatstate.entities ) {\n    msg.chatstate.entities = {};\n}\nfor ( var entity in msg.payload.entities ) {\n    msg.chatstate.entities[entity] = msg.payload.entities[entity];\n}\nmsg.payload = msg.chatstate;\nmsg.payload._id = \"\"+msg.chatId;\nreturn msg;",
      "outputs": "1",
      "noerr": 0,
      "x": 210,
      "y": 60,
      "wires": [
        [
          "41719ec7.519f1"
        ]
      ]
    },
    {
      "id": "30ce8cfd.929834",
      "type": "debug",
      "z": "9de226fe.40de78",
      "name": "",
      "active": true,
      "console": "false",
      "complete": "true",
      "x": 370,
      "y": 80,
      "wires": []
    },
    {
      "id": "2980c45d.1c033c",
      "type": "cloudant out",
      "z": "9de226fe.40de78",
      "service": "_ext_",
      "cloudant": "87530c4d.09e78",
      "name": "",
      "database": "techsprint1",
      "payonly": true,
      "operation": "insert",
      "x": 710,
      "y": 40,
      "wires": [
        [
          "e6a21248.7635c"
        ]
      ]
    },
    {
      "id": "6fac87fa.857198",
      "type": "function",
      "z": "9de226fe.40de78",
      "name": "Update DB",
      "func": "if ( !msg.chatstate.entities ) {\n    msg.chatstate.entities = {};\n}\nfor ( var entity in msg.payload.entities ) {\n    msg.chatstate.entities[entity] = msg.payload.entities[entity];\n}\nmsg.updateTimestamp = Date.now();\nmsg.payload = \"\"+msg.chatId;\nreturn msg;",
      "outputs": "1",
      "noerr": 0,
      "x": 210,
      "y": 60,
      "wires": [
        [
          "41719ec7.519f1",
          "f4e21b25.0e2c18",
          "d73bd629.9fd6e8"
        ]
      ]
    },
    {
      "id": "41719ec7.519f1",
      "type": "debug",
      "z": "9de226fe.40de78",
      "name": "",
      "active": true,
      "console": "false",
      "complete": "true",
      "x": 370,
      "y": 80,
      "wires": []
    },
    {
      "id": "d73bd629.9fd6e8",
      "type": "function",
      "z": "9de226fe.40de78",
      "name": "Update Customer Id",
      "func": "if ( msg.chatstate.entities && msg.chatstate.entities.track_id ) {\n    msg.payload = {\n        _id : msg.chatstate.entities.track_id,\n        customer_id : msg.chatId\n    }\n    return msg;\n}",
      "outputs": 1,
      "noerr": 0,
      "x": 420,
      "y": 120,
      "wires": [
        [
          "b626ebdc.8bd378"
        ]
      ]
    },
    {
      "id": "b626ebdc.8bd378",
      "type": "cloudant out",
      "z": "9de226fe.40de78",
      "service": "_ext_",
      "cloudant": "87530c4d.09e78",
      "name": "",
      "database": "techsprint1",
      "payonly": true,
      "operation": "insert",
      "x": 630,
      "y": 120,
      "wires": [
        []
      ]
    },
    {
      "id": "f4e21b25.0e2c18",
      "type": "cloudant in",
      "z": "9de226fe.40de78",
      "service": "_ext_",
      "cloudant": "87530c4d.09e78",
      "name": "",
      "database": "techsprint1",
      "search": "_id_",
      "design": "",
      "index": "",
      "x": 390,
      "y": 40,
      "wires": [
        [
          "30a914b8.54a57c"
        ]
      ]
    },
    {
      "id": "30a914b8.54a57c",
      "type": "function",
      "z": "9de226fe.40de78",
      "name": "",
      "func": "if ( msg.payload ) {\n    msg.chatstate._rev = msg.payload._rev;\n}\nmsg.payload = msg.chatstate;\nmsg.payload._id = \"\"+msg.chatId;\nif ( msg.updateTimestamp > (msg.chatstate.lastUpdate || 0) ) {\n    msg.chatstate.lastUpdate = msg.updateTimestamp;\n    return msg;\n}",
      "outputs": 1,
      "noerr": 0,
      "x": 550,
      "y": 40,
      "wires": [
        [
          "2980c45d.1c033c",
          "cbd5c826.c1ce98"
        ]
      ]
    },
    {
      "id": "cbd5c826.c1ce98",
      "type": "debug",
      "z": "9de226fe.40de78",
      "name": "",
      "active": true,
      "console": "false",
      "complete": "false",
      "x": 730,
      "y": 80,
      "wires": []
    },
    {
      "id": "e6a21248.7635c",
      "type": "debug",
      "z": "9de226fe.40de78",
      "name": "",
      "active": true,
      "console": "false",
      "complete": "false",
      "x": 890,
      "y": 40,
      "wires": []
    }
  ]
}