{
  "id": "a496e691.a2cb18",
  "type": "subflow",
  "name": "Send Response",
  "info": "",
  "in": [
    {
      "x": 100,
      "y": 120,
      "wires": [
        {
          "id": "5b3e1c9.e9d0ee4"
        },
        {
          "id": "453f7162.51f9c"
        }
      ]
    }
  ],
  "out": []
}